# Blender v242 OBJ File: 2dtest.blend
# www.blender3d.org
m 2dtest.bmp
o Plane_Plane
v 0.785335 1.582243 0.000000
v -0.782677 1.510224 0.000000
v 0.198553 -1.372725 0.000000
v 1.080787 0.561950 0.000000
v -0.030390 1.535170 0.000011
v -0.890822 0.510591 0.000000
v 0.151147 0.360469 0.000000
v 0.908122 -0.946522 0.000000
v -0.627832 -0.804610 0.000000
v 1.202187 1.456797 0.000000
v 0.891966 -0.105909 0.000000
v 0.386786 1.530596 0.000005
v -0.439070 1.488644 0.000005
v -0.652981 -0.077010 0.000000
v -1.146284 1.398051 0.000000
v -0.454809 0.503553 0.000000
v 0.050115 1.145852 0.000000
v 0.676738 0.474794 0.000000
v 0.176550 -0.568253 0.000000
v -0.513984 1.082345 0.000000
v 0.580015 1.085285 0.000000
v -0.318619 -0.353487 0.000000
v 0.591865 -0.375707 0.000000
v -0.151355 -2.140352 0.000000
v -0.910706 -2.042804 0.000000
v 0.378131 -2.058558 0.000000
v 1.079012 -1.959641 0.000000
v -1.026123 -3.006672 0.000000
v -0.263644 -3.092862 0.000000
v -0.415456 -3.822896 0.000000
v -0.934325 -3.681501 0.000000
v 1.182830 -2.918393 0.000000
v 0.492066 -2.848269 0.000000
v 0.608438 -3.681892 0.000000
v 1.152507 -3.665234 0.000000
v -2.579053 0.628313 0.000000
v -2.585335 1.262995 0.000000
v 2.341705 0.635281 0.000000
v 2.401494 1.268341 0.000000
v 0.500212 -1.155861 0.000000
v -0.193016 -1.135182 0.000000
v 1.032537 1.055005 0.000000
v -0.931770 0.866917 0.000000
v -0.780985 -1.445913 0.000000
v -0.550018 -2.074132 0.000000
v -0.018325 -1.723404 0.000000
v 0.307525 -1.761248 0.000000
v 0.731354 -2.023319 0.000000
v 1.017100 -1.522192 0.000000
v -0.979233 -2.561879 0.000000
v -0.646922 -3.031223 0.000000
v -0.218577 -2.536605 0.000000
v -1.042632 -3.367830 0.000000
v -0.675941 -3.784679 0.000000
v -0.285981 -3.519608 0.000000
v 0.466857 -2.503861 0.000000
v 0.879369 -2.927275 0.000000
v 1.174103 -2.437603 0.000000
v 0.556212 -3.306488 0.000000
v 0.882792 -3.914844 0.000000
v 1.157120 -3.363181 0.000000
v -1.885351 1.378030 0.000000
v -2.753582 0.898437 0.000000
v -1.759382 0.566048 0.000000
v 1.810910 0.609100 0.000000
v 2.590692 0.917350 0.000000
v 1.917144 1.393997 0.000000
v -0.390884 -1.667569 0.000000
v 0.629669 -1.670282 0.000000
v -0.610893 -2.542714 0.000000
v -0.664623 -3.455202 0.000000
v 0.812883 -2.450171 0.000000
v 0.868084 -3.360297 0.000000
v -1.842692 0.892597 0.000000
v 1.892930 1.039304 0.000000
v -0.052990 1.768349 0.000141
v 0.263399 1.783003 0.000049
v -0.396216 1.727560 0.000049
v 0.388055 2.001744 0.000063
v -0.083209 1.971021 0.000612
v -0.534505 1.919939 0.000063
v -0.078407 3.032758 0.000067
v 0.415264 2.847287 -0.000020
v -0.543719 2.762144 -0.000020
v 0.175321 1.953470 0.000332
v -0.328413 1.908810 0.000332
v 0.429105 2.460003 0.000024
v 0.205975 2.968151 0.000024
v -0.085449 2.538967 0.000388
v -0.348888 2.918888 0.000024
v -0.567572 2.371513 0.000024
v 0.201304 2.505490 0.000215
v -0.356593 2.455957 0.000215
vt 0.499504 0.506657 0.0
vt 0.455140 0.541501 0.0
vt 0.460786 0.447009 0.0
vt 0.656045 0.542789 0.0
vt 0.617920 0.506741 0.0
vt 0.660892 0.433581 0.0
vt 0.415823 0.663285 0.0
vt 0.479003 0.617611 0.0
vt 0.469422 0.692650 0.0
vt 0.386207 0.731621 0.0
vt 0.422308 0.617103 0.0
vt 0.670519 0.694142 0.0
vt 0.611604 0.696601 0.0
vt 0.626170 0.617566 0.0
vt 0.678401 0.630214 0.0
vt 0.691257 0.746919 0.0
vt 0.518384 0.405461 0.0
vt 0.564567 0.480358 0.0
vt 0.570056 0.375864 0.0
vt 0.608557 0.405038 0.0
vt 0.556174 0.808134 0.0
vt 0.527103 0.783326 0.0
vt 0.568178 0.786264 0.0
vt 0.583667 0.815103 0.0
vt 0.522514 0.809571 0.0
vt 0.490845 0.800685 0.0
vt 0.482624 0.776904 0.0
vt 0.464021 0.801459 0.0
vt 0.458254 0.860048 0.0
vt 0.485402 0.871712 0.0
vt 0.460081 0.910900 0.0
vt 0.484894 0.931908 0.0
vt 0.520374 0.883386 0.0
vt 0.519680 0.947591 0.0
vt 0.557755 0.879970 0.0
vt 0.556854 0.940121 0.0
vt 0.587513 0.874800 0.0
vt 0.584451 0.925093 0.0
vt 0.477832 0.745707 0.0
vt 0.530800 0.753089 0.0
vt 0.585038 0.753854 0.0
vt 0.784390 0.741109 0.0
vt 0.782399 0.694929 0.0
vt 0.847754 0.726362 0.0
vt 0.873489 0.681359 0.0
vt 0.773143 0.638746 0.0
vt 0.842047 0.643885 0.0
vt 0.309234 0.621480 0.0
vt 0.297340 0.663653 0.0
vt 0.202491 0.626896 0.0
vt 0.178925 0.661436 0.0
vt 0.290210 0.726609 0.0
vt 0.199604 0.709370 0.0
vt 0.701193 0.120283 0.0
vt 0.663614 0.119711 0.0
vt 0.701585 0.081006 0.0
vt 0.667345 0.047677 0.0
vt 0.622900 0.125685 0.0
vt 0.630921 0.077060 0.0
vt 0.703074 0.178181 0.0
vt 0.663659 0.176034 0.0
vt 0.613059 0.185036 0.0
vt 0.700362 0.240646 0.0
vt 0.653452 0.237830 0.0
vt 0.608651 0.229720 0.0
vt 0.686430 0.302459 0.0
vt 0.641450 0.293045 0.0
vt 0.595653 0.287309 0.0
vt 0.514116 0.095219 0.0
vt 0.464688 0.102353 0.0
vt 0.498279 0.055372 0.0
vt 0.464295 0.059489 0.0
vt 0.415267 0.112475 0.0
vt 0.430372 0.072057 0.0
vt 0.515623 0.150762 0.0
vt 0.465602 0.157521 0.0
vt 0.416231 0.159474 0.0
vt 0.519661 0.223213 0.0
vt 0.468686 0.221137 0.0
vt 0.420871 0.217443 0.0
vt 0.527096 0.274939 0.0
vt 0.475060 0.282244 0.0
vt 0.428074 0.285138 0.0
vt 0.676943 0.359114 0.0
vt 0.627070 0.338598 0.0
vt 0.585495 0.325721 0.0
vt 0.543021 0.329570 0.0
vt 0.494413 0.335611 0.0
vt 0.442983 0.363148 0.0
vt 0.558229 0.600991 0.0
vt 0.542533 0.702746 0.0
vt 0.636670 0.761874 0.0
vt 0.433101 0.747394 0.0
usemtl Material_2dtest.jpg
s off
f 22/1 14/2 9/3
f 11/4 23/5 8/6
f 43/7 16/8 20/9
f 15/10 43/7 20/9
f 43/7 6/11 16/8
f 42/12 21/13 18/14
f 4/15 42/12 18/14
f 42/12 10/16 21/13
f 41/17 19/18 22/1
f 9/3 41/17 22/1
f 41/17 3/19 19/18
f 40/20 23/5 19/18
f 3/19 40/20 19/18
f 40/20 8/6 23/5
f 85/21 76/22 77/23
f 79/24 85/21 77/23
f 85/21 80/25 76/22
f 86/26 78/27 76/22
f 80/25 86/26 76/22
f 86/26 81/28 78/27
f 91/29 93/30 84/31
f 93/30 90/32 84/31
f 93/30 89/33 90/32
f 89/33 82/34 90/32
f 81/28 86/26 91/29
f 86/26 93/30 91/29
f 86/26 80/25 93/30
f 80/25 89/33 93/30
f 89/33 92/35 88/36
f 89/33 88/36 82/34
f 92/35 87/37 83/38
f 92/35 83/38 88/36
f 80/25 85/21 92/35
f 80/25 92/35 89/33
f 85/21 79/24 92/35
f 79/24 87/37 92/35
f 13/39 5/40 78/27
f 5/40 76/22 78/27
f 5/40 12/41 77/23
f 5/40 77/23 76/22
f 67/42 75/43 39/44
f 75/43 66/45 39/44
f 75/43 65/46 38/47
f 75/43 38/47 66/45
f 10/16 42/12 75/43
f 10/16 75/43 67/42
f 42/12 4/15 65/46
f 42/12 65/46 75/43
f 64/48 74/49 36/50
f 74/49 63/51 36/50
f 74/49 62/52 37/53
f 74/49 37/53 63/51
f 6/11 43/7 64/48
f 43/7 74/49 64/48
f 43/7 15/10 74/49
f 15/10 62/52 74/49
f 61/54 73/55 35/56
f 73/55 60/57 35/56
f 73/55 59/58 34/59
f 73/55 34/59 60/57
f 32/60 57/61 61/54
f 57/61 73/55 61/54
f 57/61 33/62 59/58
f 57/61 59/58 73/55
f 58/63 72/64 57/61
f 58/63 57/61 32/60
f 72/64 56/65 33/62
f 72/64 33/62 57/61
f 27/66 48/67 72/64
f 27/66 72/64 58/63
f 48/67 26/68 56/65
f 48/67 56/65 72/64
f 55/69 71/70 30/71
f 71/70 54/72 30/71
f 71/70 53/73 31/74
f 71/70 31/74 54/72
f 29/75 51/76 71/70
f 29/75 71/70 55/69
f 51/76 28/77 53/73
f 51/76 53/73 71/70
f 52/78 70/79 29/75
f 70/79 51/76 29/75
f 70/79 50/80 51/76
f 50/80 28/77 51/76
f 24/81 45/82 52/78
f 45/82 70/79 52/78
f 45/82 25/83 70/79
f 25/83 50/80 70/79
f 49/84 69/85 27/66
f 69/85 48/67 27/66
f 69/85 47/86 26/68
f 69/85 26/68 48/67
f 8/6 40/20 49/84
f 40/20 69/85 49/84
f 40/20 3/19 69/85
f 3/19 47/86 69/85
f 46/87 68/88 24/81
f 68/88 45/82 24/81
f 68/88 44/89 25/83
f 68/88 25/83 45/82
f 3/19 41/17 46/87
f 41/17 68/88 46/87
f 41/17 9/3 44/89
f 41/17 44/89 68/88
f 4/15 18/14 11/4
f 18/14 23/5 11/4
f 18/14 7/90 23/5
f 7/90 19/18 23/5
f 7/90 16/8 22/1
f 7/90 22/1 19/18
f 16/8 6/11 14/2
f 16/8 14/2 22/1
f 21/13 17/91 7/90
f 21/13 7/90 18/14
f 1/92 12/41 21/13
f 1/92 21/13 10/16
f 12/41 5/40 17/91
f 12/41 17/91 21/13
f 17/91 20/9 16/8
f 17/91 16/8 7/90
f 5/40 13/39 17/91
f 13/39 20/9 17/91
f 13/39 2/93 20/9
f 2/93 15/10 20/9
